INSERT INTO matches (id, tournament_id, next_match_id, blue_team_id, red_team_id, winning_team_id, round, start_date, finished) VALUES 
(1,1,0,149,57,0,1,'2015-10-29 14:00:00',False),
(8,2,0,218,52,52,3,'2015-10-15 18:00:00',True),
(7,2,8,251,52,52,2,'2015-10-15 17:14:00',True),
(6,2,8,218,165,218,2,'2015-10-15 16:57:00',True),
(5,2,7,52,33,52,1,'2015-10-15 16:00:00',True),
(4,2,7,251,145,251,1,'2015-10-15 16:00:00',True),
(3,2,6,165,129,165,1,'2015-10-15 16:00:00',True),
(2,2,6,255,218,218,1,'2015-10-15 16:00:00',True),
(11,3,0,0,0,0,2,'0001-01-01 00:00:00',False),
(10,3,11,49,177,0,1,'2015-10-26 16:00:00',False),
(9,3,11,63,224,0,1,'2015-10-26 16:00:00',False),
(18,4,0,0,161,0,3,'2015-10-24 14:14:00',False),
(17,4,18,12,161,161,2,'2015-10-24 13:03:00',True),
(16,4,18,0,0,0,2,'0001-01-01 00:00:00',False),
(15,4,17,161,256,161,1,'2015-10-24 12:00:00',True),
(14,4,17,12,2,12,1,'2015-10-24 12:00:00',True),
(13,4,16,284,0,0,1,'2015-10-24 12:00:00',False),
(12,4,16,0,0,0,1,'2015-10-24 12:00:00',False),
(19,5,0,130,246,130,1,'2015-10-07 17:00:00',True),
(22,6,0,193,66,193,2,'2015-10-10 15:56:00',True),
(21,6,22,66,93,66,1,'2015-10-10 15:00:00',True),
(20,6,22,241,193,193,1,'2015-10-10 15:00:00',True),
(25,7,0,0,66,0,2,'2015-10-28 14:59:00',False),
(24,7,25,66,71,66,1,'2015-10-28 14:00:00',True),
(23,7,25,0,0,0,1,'2015-10-28 14:00:00',False),
(28,8,0,0,0,0,2,'0001-01-01 00:00:00',False),
(27,8,28,224,32,0,1,'2015-10-11 17:00:00',False),
(26,8,28,118,63,0,1,'2015-10-11 17:00:00',False),
(29,9,0,170,13,0,1,'2015-10-19 16:00:00',False),
(32,10,0,142,144,142,2,'2015-10-28 16:09:00',True),
(31,10,32,207,144,144,1,'2015-10-28 15:00:00',True),
(30,10,32,142,186,142,1,'2015-10-28 15:00:00',True),
(39,11,0,2,32,2,3,'2015-10-24 15:26:00',True),
(38,11,39,116,32,32,2,'2015-10-24 13:54:00',True),
(37,11,39,81,2,2,2,'2015-10-24 14:19:00',True),
(36,11,38,32,121,32,1,'2015-10-24 13:00:00',True),
(35,11,38,116,85,116,1,'2015-10-24 13:00:00',True),
(34,11,37,155,2,2,1,'2015-10-24 13:00:00',True),
(33,11,37,81,137,81,1,'2015-10-24 13:00:00',True),
(40,12,0,87,64,64,1,'2015-10-19 16:00:00',True),
(41,13,0,275,80,275,1,'2015-10-17 12:00:00',True),
(48,14,0,0,0,0,3,'0001-01-01 00:00:00',False),
(47,14,48,252,249,0,2,'2015-10-19 16:16:00',False),
(46,14,48,95,128,0,2,'2015-10-19 16:02:00',False),
(45,14,47,39,249,249,1,'2015-10-19 15:00:00',True),
(44,14,47,142,252,252,1,'2015-10-19 15:00:00',True),
(43,14,46,128,164,128,1,'2015-10-19 15:00:00',True),
(42,14,46,95,203,95,1,'2015-10-19 15:00:00',True),
(55,15,0,28,60,0,3,'2015-10-24 18:48:00',False),
(54,15,55,60,157,60,2,'2015-10-24 17:59:00',True),
(53,15,55,112,28,28,2,'2015-10-24 17:53:00',True),
(52,15,54,157,64,157,1,'2015-10-24 17:00:00',True),
(51,15,54,147,60,60,1,'2015-10-24 17:00:00',True),
(50,15,53,195,28,28,1,'2015-10-24 17:00:00',True),
(49,15,53,156,112,112,1,'2015-10-24 17:00:00',True),
(56,16,0,80,159,80,1,'2015-10-24 17:00:00',True),
(63,17,0,167,272,167,3,'2015-10-15 15:49:00',True),
(62,17,63,229,272,272,2,'2015-10-15 14:51:00',True),
(61,17,63,108,167,167,2,'2015-10-15 14:54:00',True),
(60,17,62,92,272,272,1,'2015-10-15 14:00:00',True),
(59,17,62,229,201,229,1,'2015-10-15 14:00:00',True),
(58,17,61,167,23,167,1,'2015-10-15 14:00:00',True),
(57,17,61,108,75,108,1,'2015-10-15 14:00:00',True),
(70,18,0,116,150,0,3,'2015-10-13 18:59:00',False),
(69,18,70,161,150,150,2,'2015-10-13 18:16:00',True),
(68,18,70,116,134,116,2,'2015-10-13 17:53:00',True),
(67,18,69,150,26,150,1,'2015-10-13 17:00:00',True),
(66,18,69,276,161,161,1,'2015-10-13 17:00:00',True),
(65,18,68,81,134,134,1,'2015-10-13 17:00:00',True),
(64,18,68,2,116,116,1,'2015-10-13 17:00:00',True),
(73,19,0,0,0,0,2,'0001-01-01 00:00:00',False),
(72,19,73,29,3,0,1,'2015-10-03 17:00:00',False),
(71,19,73,128,39,0,1,'2015-10-03 17:00:00',False),
(76,20,0,268,234,234,2,'2015-10-20 15:54:00',True),
(75,20,76,33,234,234,1,'2015-10-20 15:00:00',True),
(74,20,76,268,172,268,1,'2015-10-20 15:00:00',True),
(79,21,0,257,60,60,2,'2015-10-01 12:55:00',True),
(78,21,79,60,220,60,1,'2015-10-01 12:00:00',True),
(77,21,79,257,184,257,1,'2015-10-01 12:00:00',True),
(82,22,0,169,153,0,2,'2015-10-02 15:55:00',False),
(81,22,82,153,251,153,1,'2015-10-02 15:00:00',True),
(80,22,82,169,52,169,1,'2015-10-02 15:00:00',True),
(85,23,0,0,0,0,2,'0001-01-01 00:00:00',False),
(84,23,85,134,256,0,1,'2015-10-04 16:00:00',False),
(83,23,85,2,239,0,1,'2015-10-04 16:00:00',False),
(88,24,0,269,138,138,2,'2015-10-30 14:56:00',True),
(87,24,88,138,4,138,1,'2015-10-30 14:00:00',True),
(86,24,88,261,269,269,1,'2015-10-30 14:00:00',True),
(91,25,0,268,104,104,2,'2015-10-01 16:08:00',True),
(90,25,91,104,33,104,1,'2015-10-01 15:00:00',True),
(89,25,91,268,52,268,1,'2015-10-01 15:00:00',True),
(94,26,0,0,0,0,2,'0001-01-01 00:00:00',False),
(93,26,94,60,64,0,1,'2015-10-27 16:00:00',False),
(92,26,94,156,157,0,1,'2015-10-27 16:00:00',False),
(101,27,0,252,144,144,3,'2015-10-11 14:25:00',True),
(100,27,101,144,29,144,2,'2015-10-11 13:03:00',True),
(99,27,101,190,252,252,2,'2015-10-11 13:10:00',True),
(98,27,100,207,29,29,1,'2015-10-11 12:00:00',True),
(97,27,100,84,144,144,1,'2015-10-11 12:00:00',True),
(96,27,99,142,252,252,1,'2015-10-11 12:00:00',True),
(95,27,99,3,190,190,1,'2015-10-11 12:00:00',True),
(108,28,0,87,60,60,3,'2015-10-08 18:08:00',True),
(107,28,108,283,60,60,2,'2015-10-08 17:16:00',True),
(106,28,108,112,87,87,2,'2015-10-08 16:54:00',True),
(105,28,107,77,60,60,1,'2015-10-08 16:00:00',True),
(104,28,107,283,183,283,1,'2015-10-08 16:00:00',True),
(103,28,106,87,147,87,1,'2015-10-08 16:00:00',True),
(102,28,106,184,112,112,1,'2015-10-08 16:00:00',True),
(115,29,0,0,0,0,3,'0001-01-01 00:00:00',False),
(114,29,115,0,259,0,2,'2015-10-18 16:09:00',False),
(113,29,115,0,0,0,2,'0001-01-01 00:00:00',False),
(112,29,114,138,259,259,1,'2015-10-18 15:00:00',True),
(111,29,114,171,0,0,1,'2015-10-18 15:00:00',False),
(110,29,113,0,0,0,1,'2015-10-18 15:00:00',False),
(109,29,113,0,0,0,1,'2015-10-18 15:00:00',False),
(116,30,0,255,240,240,1,'2015-10-10 13:00:00',True),
(117,31,0,35,162,0,1,'2015-10-02 12:00:00',False),
(118,32,0,255,38,38,1,'2015-10-25 15:00:00',True),
(121,33,0,198,214,198,2,'2015-10-17 13:06:00',True),
(120,33,121,214,230,214,1,'2015-10-17 12:00:00',True),
(119,33,121,198,59,198,1,'2015-10-17 12:00:00',True),
(122,34,0,249,190,0,1,'2015-10-07 13:00:00',False),
(123,35,0,40,261,0,1,'2015-10-01 17:00:00',False),
(126,36,0,219,13,13,2,'2015-10-05 18:04:00',True),
(125,36,126,13,205,13,1,'2015-10-05 17:00:00',True),
(124,36,126,219,209,219,1,'2015-10-05 17:00:00',True),
(133,37,0,0,0,0,3,'0001-01-01 00:00:00',False),
(132,37,133,0,104,0,2,'2015-10-29 13:07:00',False),
(131,37,133,0,0,0,2,'0001-01-01 00:00:00',False),
(130,37,132,104,169,104,1,'2015-10-29 12:00:00',True),
(129,37,132,218,0,0,1,'2015-10-29 12:00:00',False),
(128,37,131,0,0,0,1,'2015-10-29 12:00:00',False),
(127,37,131,0,0,0,1,'2015-10-29 12:00:00',False),
(134,38,0,10,235,10,1,'2015-10-07 17:00:00',True),
(137,39,0,120,151,151,2,'2015-10-08 14:14:00',True),
(136,39,137,151,194,151,1,'2015-10-08 13:00:00',True),
(135,39,137,192,120,120,1,'2015-10-08 13:00:00',True),
(138,40,0,225,233,0,1,'2015-10-10 15:00:00',False),
(145,41,0,0,0,0,3,'0001-01-01 00:00:00',False),
(144,41,145,182,93,0,2,'2015-10-06 18:08:00',False),
(143,41,145,47,79,0,2,'2015-10-06 18:08:00',False),
(142,41,144,7,93,93,1,'2015-10-06 17:00:00',True),
(141,41,144,182,206,182,1,'2015-10-06 17:00:00',True),
(140,41,143,67,79,79,1,'2015-10-06 17:00:00',True),
(139,41,143,221,47,47,1,'2015-10-06 17:00:00',True),
(146,42,0,31,245,0,1,'2015-10-14 15:00:00',False),
(149,43,0,212,279,0,2,'2015-10-13 13:15:00',False),
(148,43,149,279,42,279,1,'2015-10-13 12:00:00',True),
(147,43,149,132,212,212,1,'2015-10-13 12:00:00',True),
(152,44,0,99,119,99,2,'2015-10-28 16:19:00',True),
(151,44,152,147,119,119,1,'2015-10-28 15:00:00',True),
(150,44,152,99,77,99,1,'2015-10-28 15:00:00',True),
(159,45,0,159,80,159,3,'2015-10-03 17:24:00',True),
(158,45,159,80,181,80,2,'2015-10-03 16:10:00',True),
(157,45,159,159,278,159,2,'2015-10-03 16:18:00',True),
(156,45,158,61,181,181,1,'2015-10-03 15:00:00',True),
(155,45,158,263,80,80,1,'2015-10-03 15:00:00',True),
(154,45,157,245,278,278,1,'2015-10-03 15:00:00',True),
(153,45,157,230,159,159,1,'2015-10-03 15:00:00',True),
(160,46,0,62,159,0,1,'2015-10-24 14:00:00',False),
(167,47,0,133,18,18,3,'2015-10-25 17:13:00',True),
(166,47,167,18,267,18,2,'2015-10-25 16:02:00',True),
(165,47,167,189,133,133,2,'2015-10-25 16:14:00',True),
(164,47,166,69,267,267,1,'2015-10-25 15:00:00',True),
(163,47,166,18,228,18,1,'2015-10-25 15:00:00',True),
(162,47,165,42,133,133,1,'2015-10-25 15:00:00',True),
(161,47,165,189,48,189,1,'2015-10-25 15:00:00',True),
(170,48,0,0,0,0,2,'0001-01-01 00:00:00',False),
(169,48,170,106,0,0,1,'2015-10-08 16:00:00',False),
(168,48,170,0,0,0,1,'2015-10-08 16:00:00',False),
(171,49,0,26,85,0,1,'2015-10-11 12:00:00',False),
(174,50,0,0,0,0,2,'0001-01-01 00:00:00',False),
(173,50,174,65,196,0,1,'2015-10-19 13:00:00',False),
(172,50,174,193,221,0,1,'2015-10-19 13:00:00',False);
