INSERT INTO payouts (id, tournament_id, team_id, org_id, amount) VALUES 
(0,2,52,3,53001.83),
(0,5,130,5,2821.972),
(0,6,193,1,15536.6),
(0,10,142,3,25090.92),
(0,11,2,1,28649.97),
(0,12,64,5,8409.554),
(0,13,275,4,1336.679),
(0,16,80,3,7882.629),
(0,17,167,1,34758.63),
(0,20,234,3,9175.468),
(0,21,60,4,18163.71),
(0,24,138,3,23461.88),
(0,25,104,2,30842.8),
(0,27,144,3,53226.01),
(0,28,60,4,59582.79),
(0,30,240,1,4572.633),
(0,32,38,4,7191.569),
(0,33,198,5,8241.525),
(0,36,13,4,19819.04),
(0,38,10,2,723.6085),
(0,39,151,2,11173.61),
(0,44,99,4,23886.48),
(0,45,159,4,54463.93),
(0,47,18,2,41457.64);
